[{"line":1,"elements":[{"line":4,"name":"karate config test case1","description":"","id":"karate-config-test-case1","type":"scenario","keyword":"Scenario","steps":[{"name":"url baseUrl","result":{"duration":52000,"status":"passed"},"match":{"location":"karate","arguments":[]},"keyword":"Given","line":5,"doc_string":{"content_type":"","value":"17:27:53.078 from karate config file","line":5}},{"name":"path listUsers","result":{"duration":76100,"status":"passed"},"match":{"location":"karate","arguments":[]},"keyword":"And","line":6},{"name":"method Get","result":{"duration":654612500,"status":"passed"},"match":{"location":"karate","arguments":[]},"keyword":"When","line":7,"doc_string":{"content_type":"","value":"17:27:53.468 request:\n1 > GET http:\/\/reqres.in\/api\/users%3Fpage=2\n1 > Accept-Encoding: gzip,deflate\n1 > Connection: Keep-Alive\n1 > Host: reqres.in\n1 > User-Agent: Apache-HttpClient\/4.5.12 (Java\/1.8.0_251)\n\n17:27:53.578 response time in milliseconds: 106.48\n1 < 301\n1 < CF-RAY: 5fbd1cd7ac4b2e5e-BOM\n1 < Cache-Control: max-age=3600\n1 < Connection: keep-alive\n1 < Date: Thu, 03 Dec 2020 11:57:53 GMT\n1 < Expires: Thu, 03 Dec 2020 12:57:53 GMT\n1 < Location: https:\/\/reqres.in\/api\/users%3Fpage=2\n1 < NEL: {\"report_to\":\"cf-nel\",\"max_age\":604800}\n1 < Report-To: {\"endpoints\":[{\"url\":\"https:\\\/\\\/a.nel.cloudflare.com\\\/report?s=Q%2B7B1%2Bhar6v2gAOtetPir5kBWZZ%2FCo4nF45X5oa6kVwacjqnDzsT%2B0FGByhaNRtYY7qgg5Lee0RfaZjXmCEZXSb1wQ2aP5iZDOE%3D\"}],\"group\":\"cf-nel\",\"max_age\":604800}\n1 < Server: cloudflare\n1 < Transfer-Encoding: chunked\n1 < Vary: Accept-Encoding\n1 < cf-request-id: 06ca105acc00002e5e30bfd000000001\n\n17:27:53.578 request:\n2 > GET http:\/\/reqres.in\/api\/users%3Fpage=2\n2 > Accept-Encoding: gzip,deflate\n2 > Connection: Keep-Alive\n2 > Host: reqres.in\n2 > User-Agent: Apache-HttpClient\/4.5.12 (Java\/1.8.0_251)\n\n17:27:53.833 response time in milliseconds: 244.60\n2 < 200\n2 < Access-Control-Allow-Origin: *\n2 < Age: 1107\n2 < CF-Cache-Status: HIT\n2 < CF-RAY: 5fbd1cd93e7cd593-BOM\n2 < Cache-Control: max-age=14400\n2 < Connection: keep-alive\n2 < Content-Type: application\/json; charset=utf-8\n2 < Date: Thu, 03 Dec 2020 11:57:53 GMT\n2 < Etag: W\/\"2c1-N6Rqerxquq2kgQhL51EiSg4x0R8\"\n2 < Expect-CT: max-age=604800, report-uri=\"https:\/\/report-uri.cloudflare.com\/cdn-cgi\/beacon\/expect-ct\"\n2 < NEL: {\"report_to\":\"cf-nel\",\"max_age\":604800}\n2 < Report-To: {\"endpoints\":[{\"url\":\"https:\\\/\\\/a.nel.cloudflare.com\\\/report?s=GZtJe0APKAhqqvMbtXUpL7h%2FC0kn0gjcnyn8FYvYEJRp2vKGfJmmW1PzrCTiVY5khCt489h7XJS9iq5iOMk0s8g6I2yh%2BWv4BVQ%3D\"}],\"group\":\"cf-nel\",\"max_age\":604800}\n2 < Server: cloudflare\n2 < Set-Cookie: __cfduid=d5078ab10ddddcadeb26aed26c06353901606996673; expires=Sat, 02-Jan-21 11:57:53 GMT; path=\/; domain=.reqres.in; HttpOnly; SameSite=Lax; Secure\n2 < Transfer-Encoding: chunked\n2 < Vary: Accept-Encoding\n2 < Via: 1.1 vegur\n2 < X-Powered-By: Express\n2 < cf-request-id: 06ca105bc00000d59378032000000001\n{\"page\":1,\"per_page\":6,\"total\":12,\"total_pages\":2,\"data\":[{\"id\":1,\"name\":\"cerulean\",\"year\":2000,\"color\":\"#98B2D1\",\"pantone_value\":\"15-4020\"},{\"id\":2,\"name\":\"fuchsia rose\",\"year\":2001,\"color\":\"#C74375\",\"pantone_value\":\"17-2031\"},{\"id\":3,\"name\":\"true red\",\"year\":2002,\"color\":\"#BF1932\",\"pantone_value\":\"19-1664\"},{\"id\":4,\"name\":\"aqua sky\",\"year\":2003,\"color\":\"#7BC4C4\",\"pantone_value\":\"14-4811\"},{\"id\":5,\"name\":\"tigerlily\",\"year\":2004,\"color\":\"#E2583E\",\"pantone_value\":\"17-1456\"},{\"id\":6,\"name\":\"blue turquoise\",\"year\":2005,\"color\":\"#53B0AE\",\"pantone_value\":\"15-5217\"}],\"support\":{\"url\":\"https:\/\/reqres.in\/#support-heading\",\"text\":\"To keep ReqRes free, contributions towards server costs are appreciated!\"}}","line":7}},{"name":"status 200","result":{"duration":14600,"status":"passed"},"match":{"location":"karate","arguments":[]},"keyword":"Then","line":8}]}],"name":"src\/test\/java\/FeatureFiles\/KarateConfigExample.feature","description":"karate config suite file\nReading global variable from karate config js file","id":"karate-config-suite-file","keyword":"Feature","uri":"src\/test\/java\/FeatureFiles\/KarateConfigExample.feature"}]