[{"line":1,"elements":[{"line":12,"name":"URL and path usage test case2","description":"","id":"url-and-path-usage-test-case2","type":"scenario","keyword":"Scenario","steps":[{"name":"url \"http:\/\/reqres.in\"","result":{"duration":12724800,"status":"passed"},"match":{"location":"karate","arguments":[]},"keyword":"Given","line":13,"doc_string":{"content_type":"","value":"16:44:15.379 skipping bootstrap configuration: could not find or read file: classpath:karate-config.js","line":13}},{"name":"path \"\/api\/users\"","result":{"duration":1584600,"status":"passed"},"match":{"location":"karate","arguments":[]},"keyword":"And","line":14},{"name":"param page = 2","result":{"duration":2331700,"status":"passed"},"match":{"location":"karate","arguments":[]},"keyword":"And","line":15},{"name":"method Get","result":{"duration":915792100,"status":"passed"},"match":{"location":"karate","arguments":[]},"keyword":"When","line":16,"doc_string":{"content_type":"","value":"16:44:15.769 request:\n1 > GET http:\/\/reqres.in\/api\/users?page=2\n1 > Accept-Encoding: gzip,deflate\n1 > Connection: Keep-Alive\n1 > Host: reqres.in\n1 > User-Agent: Apache-HttpClient\/4.5.12 (Java\/1.8.0_251)\n\n16:44:15.925 response time in milliseconds: 150.96\n1 < 301\n1 < CF-RAY: 5fb49f893aee016a-SIN\n1 < Cache-Control: max-age=3600\n1 < Connection: keep-alive\n1 < Date: Wed, 02 Dec 2020 11:14:14 GMT\n1 < Expires: Wed, 02 Dec 2020 12:14:14 GMT\n1 < Location: https:\/\/reqres.in\/api\/users?page=2\n1 < NEL: {\"report_to\":\"cf-nel\",\"max_age\":604800}\n1 < Report-To: {\"endpoints\":[{\"url\":\"https:\\\/\\\/a.nel.cloudflare.com\\\/report?s=iKPc8ftANxsGLIRAbZRl%2BWNE7euSphni%2BEf5aSAHlDMMitCl52ujLtdu2LVhFXBrmHB5gq4P9G8PpLePWLnGq6alWqr4SmDG73g%3D\"}],\"group\":\"cf-nel\",\"max_age\":604800}\n1 < Server: cloudflare\n1 < Transfer-Encoding: chunked\n1 < Vary: Accept-Encoding\n1 < cf-request-id: 06c4c209c30000016ad2b04000000001\n\n16:44:15.925 request:\n2 > GET http:\/\/reqres.in\/api\/users?page=2\n2 > Accept-Encoding: gzip,deflate\n2 > Connection: Keep-Alive\n2 > Host: reqres.in\n2 > User-Agent: Apache-HttpClient\/4.5.12 (Java\/1.8.0_251)\n\n16:44:16.285 response time in milliseconds: 355.84\n2 < 200\n2 < Access-Control-Allow-Origin: *\n2 < Age: 4339\n2 < CF-Cache-Status: HIT\n2 < CF-RAY: 5fb49f8b7cc0a970-SIN\n2 < Cache-Control: max-age=14400\n2 < Connection: keep-alive\n2 < Content-Type: application\/json; charset=utf-8\n2 < Date: Wed, 02 Dec 2020 11:14:14 GMT\n2 < Etag: W\/\"406-ut0vzoCuidvyMf8arZpMpJ6ZRDw\"\n2 < Expect-CT: max-age=604800, report-uri=\"https:\/\/report-uri.cloudflare.com\/cdn-cgi\/beacon\/expect-ct\"\n2 < NEL: {\"report_to\":\"cf-nel\",\"max_age\":604800}\n2 < Report-To: {\"endpoints\":[{\"url\":\"https:\\\/\\\/a.nel.cloudflare.com\\\/report?s=QA3FyQQsoNStFWSqaGZbduf1yghGPZx4%2BeJ4dzSY62uLHkiE82agXG5ELzxzBeFiAnpvcZzbmGgwXQt3F5dKi%2BwnmKW9Z5gGo9Q%3D\"}],\"group\":\"cf-nel\",\"max_age\":604800}\n2 < Server: cloudflare\n2 < Set-Cookie: __cfduid=d18c4b6c6dca2ff073e44d9d12a6e99931606907654; expires=Fri, 01-Jan-21 11:14:14 GMT; path=\/; domain=.reqres.in; HttpOnly; SameSite=Lax; Secure\n2 < Transfer-Encoding: chunked\n2 < Vary: Accept-Encoding\n2 < Via: 1.1 vegur\n2 < X-Powered-By: Express\n2 < cf-request-id: 06c4c20b2a0000a970881f4000000001\n{\"page\":2,\"per_page\":6,\"total\":12,\"total_pages\":2,\"data\":[{\"id\":7,\"email\":\"michael.lawson@reqres.in\",\"first_name\":\"Michael\",\"last_name\":\"Lawson\",\"avatar\":\"https:\/\/reqres.in\/img\/faces\/7-image.jpg\"},{\"id\":8,\"email\":\"lindsay.ferguson@reqres.in\",\"first_name\":\"Lindsay\",\"last_name\":\"Ferguson\",\"avatar\":\"https:\/\/reqres.in\/img\/faces\/8-image.jpg\"},{\"id\":9,\"email\":\"tobias.funke@reqres.in\",\"first_name\":\"Tobias\",\"last_name\":\"Funke\",\"avatar\":\"https:\/\/reqres.in\/img\/faces\/9-image.jpg\"},{\"id\":10,\"email\":\"byron.fields@reqres.in\",\"first_name\":\"Byron\",\"last_name\":\"Fields\",\"avatar\":\"https:\/\/reqres.in\/img\/faces\/10-image.jpg\"},{\"id\":11,\"email\":\"george.edwards@reqres.in\",\"first_name\":\"George\",\"last_name\":\"Edwards\",\"avatar\":\"https:\/\/reqres.in\/img\/faces\/11-image.jpg\"},{\"id\":12,\"email\":\"rachel.howell@reqres.in\",\"first_name\":\"Rachel\",\"last_name\":\"Howell\",\"avatar\":\"https:\/\/reqres.in\/img\/faces\/12-image.jpg\"}],\"support\":{\"url\":\"https:\/\/reqres.in\/#support-heading\",\"text\":\"To keep ReqRes free, contributions towards server costs are appreciated!\"}}","line":16}},{"name":"status 200","result":{"duration":32600,"status":"passed"},"match":{"location":"karate","arguments":[]},"keyword":"Then","line":17},{"name":"match response.page == \"##\"","result":{"duration":12481700,"status":"passed"},"match":{"location":"karate","arguments":[]},"keyword":"And","line":18}]}],"name":"src\/test\/java\/FeatureFiles\/Karate10.feature","description":"Karate Test Suite 10\nUsing URL and path","id":"karate-test-suite-10","keyword":"Feature","uri":"src\/test\/java\/FeatureFiles\/Karate10.feature"}]