[{"line":1,"elements":[{"line":15,"name":"DDT Test Case","description":"","id":"ddt-test-case","type":"scenario","keyword":"Scenario Outline","steps":[{"name":"url \"http:\/\/reqres.in\"","result":{"duration":2038400,"status":"passed"},"match":{"location":"karate","arguments":[]},"keyword":"Given","line":7,"doc_string":{"content_type":"","value":"18:56:50.222 skipping bootstrap configuration: could not find or read file: classpath:karate-config.js","line":7}},{"name":"path \"\/api\/users?page='1'\"","result":{"duration":1699200,"status":"passed"},"match":{"location":"karate","arguments":[]},"keyword":"And","line":8},{"name":"method GET","result":{"duration":876054700,"status":"passed"},"match":{"location":"karate","arguments":[]},"keyword":"When","line":9,"doc_string":{"content_type":"","value":"18:56:50.566 request:\n1 > GET http:\/\/reqres.in\/api\/users%3Fpage='1'\n1 > Accept-Encoding: gzip,deflate\n1 > Connection: Keep-Alive\n1 > Host: reqres.in\n1 > User-Agent: Apache-HttpClient\/4.5.12 (Java\/1.8.0_251)\n\n18:56:50.723 response time in milliseconds: 161.23\n1 < 301\n1 < CF-RAY: 5fb561be1d1bd9c4-SIN\n1 < Cache-Control: max-age=3600\n1 < Connection: keep-alive\n1 < Date: Wed, 02 Dec 2020 13:26:49 GMT\n1 < Expires: Wed, 02 Dec 2020 14:26:49 GMT\n1 < Location: https:\/\/reqres.in\/api\/users%3Fpage='1'\n1 < NEL: {\"report_to\":\"cf-nel\",\"max_age\":604800}\n1 < Report-To: {\"endpoints\":[{\"url\":\"https:\\\/\\\/a.nel.cloudflare.com\\\/report?s=poAuu5EN1x7iyZeyDiLQk7ApdbAduidSP66osIGZ3dK2ROcYGmJiZFlPxqZMO32GHArFIgmw8IjPDXdzwkIfdgFmfCnTxVEMoss%3D\"}],\"group\":\"cf-nel\",\"max_age\":604800}\n1 < Server: cloudflare\n1 < Transfer-Encoding: chunked\n1 < Vary: Accept-Encoding\n1 < cf-request-id: 06c53b6ad30000d9c40f358000000001\n\n18:56:50.723 request:\n2 > GET http:\/\/reqres.in\/api\/users%3Fpage='1'\n2 > Accept-Encoding: gzip,deflate\n2 > Connection: Keep-Alive\n2 > Host: reqres.in\n2 > User-Agent: Apache-HttpClient\/4.5.12 (Java\/1.8.0_251)\n\n18:56:51.082 response time in milliseconds: 344.97\n2 < 200\n2 < Access-Control-Allow-Origin: *\n2 < Age: 317\n2 < CF-Cache-Status: HIT\n2 < CF-RAY: 5fb561c05ca11740-SIN\n2 < Cache-Control: max-age=14400\n2 < Connection: keep-alive\n2 < Content-Type: application\/json; charset=utf-8\n2 < Date: Wed, 02 Dec 2020 13:26:49 GMT\n2 < Etag: W\/\"2c1-N6Rqerxquq2kgQhL51EiSg4x0R8\"\n2 < Expect-CT: max-age=604800, report-uri=\"https:\/\/report-uri.cloudflare.com\/cdn-cgi\/beacon\/expect-ct\"\n2 < NEL: {\"report_to\":\"cf-nel\",\"max_age\":604800}\n2 < Report-To: {\"endpoints\":[{\"url\":\"https:\\\/\\\/a.nel.cloudflare.com\\\/report?s=P0xt0zvUW4uzrBfW4BT3kPtyxvlwrdZoW3khOZtOCDb86DVRn57GzS0xJbeenGAlt9L8hXSi6POp4TUGiEEYW%2Fppmz78bHbVOGs%3D\"}],\"group\":\"cf-nel\",\"max_age\":604800}\n2 < Server: cloudflare\n2 < Set-Cookie: __cfduid=d86ad8cd208c5f577a1af00fa8eaab99f1606915609; expires=Fri, 01-Jan-21 13:26:49 GMT; path=\/; domain=.reqres.in; HttpOnly; SameSite=Lax; Secure\n2 < Transfer-Encoding: chunked\n2 < Vary: Accept-Encoding\n2 < Via: 1.1 vegur\n2 < X-Powered-By: Express\n2 < cf-request-id: 06c53b6c35000017402b108000000001\n{\"page\":1,\"per_page\":6,\"total\":12,\"total_pages\":2,\"data\":[{\"id\":1,\"name\":\"cerulean\",\"year\":2000,\"color\":\"#98B2D1\",\"pantone_value\":\"15-4020\"},{\"id\":2,\"name\":\"fuchsia rose\",\"year\":2001,\"color\":\"#C74375\",\"pantone_value\":\"17-2031\"},{\"id\":3,\"name\":\"true red\",\"year\":2002,\"color\":\"#BF1932\",\"pantone_value\":\"19-1664\"},{\"id\":4,\"name\":\"aqua sky\",\"year\":2003,\"color\":\"#7BC4C4\",\"pantone_value\":\"14-4811\"},{\"id\":5,\"name\":\"tigerlily\",\"year\":2004,\"color\":\"#E2583E\",\"pantone_value\":\"17-1456\"},{\"id\":6,\"name\":\"blue turquoise\",\"year\":2005,\"color\":\"#53B0AE\",\"pantone_value\":\"15-5217\"}],\"support\":{\"url\":\"https:\/\/reqres.in\/#support-heading\",\"text\":\"To keep ReqRes free, contributions towards server costs are appreciated!\"}}","line":9}},{"name":"status 200","result":{"duration":10900,"status":"passed"},"match":{"location":"karate","arguments":[]},"keyword":"Then","line":10},{"name":"response.page == 1","result":{"duration":21547300,"status":"passed"},"match":{"location":"karate","arguments":[]},"keyword":"And","line":11},{"name":"match response.page == '##'","result":{"duration":4681500,"status":"passed"},"match":{"location":"karate","arguments":[]},"keyword":"And","line":12}],"tags":[{"name":"@ddt","line":4}]},{"line":16,"name":"DDT Test Case","description":"","id":"ddt-test-case","type":"scenario","keyword":"Scenario Outline","steps":[{"name":"url \"http:\/\/reqres.in\"","result":{"duration":145600,"status":"passed"},"match":{"location":"karate","arguments":[]},"keyword":"Given","line":7,"doc_string":{"content_type":"","value":"18:56:51.160 skipping bootstrap configuration: could not find or read file: classpath:karate-config.js","line":7}},{"name":"path \"\/api\/users?page='2'\"","result":{"duration":1909200,"status":"passed"},"match":{"location":"karate","arguments":[]},"keyword":"And","line":8},{"name":"method GET","result":{"duration":283008900,"status":"passed"},"match":{"location":"karate","arguments":[]},"keyword":"When","line":9,"doc_string":{"content_type":"","value":"18:56:51.160 request:\n1 > GET http:\/\/reqres.in\/api\/users%3Fpage='2'\n1 > Accept-Encoding: gzip,deflate\n1 > Connection: Keep-Alive\n1 > Host: reqres.in\n1 > User-Agent: Apache-HttpClient\/4.5.12 (Java\/1.8.0_251)\n\n18:56:51.270 response time in milliseconds: 115.39\n1 < 301\n1 < CF-RAY: 5fb561c19c8a1a7a-SIN\n1 < Cache-Control: max-age=3600\n1 < Connection: keep-alive\n1 < Date: Wed, 02 Dec 2020 13:26:49 GMT\n1 < Expires: Wed, 02 Dec 2020 14:26:49 GMT\n1 < Location: https:\/\/reqres.in\/api\/users%3Fpage='2'\n1 < NEL: {\"report_to\":\"cf-nel\",\"max_age\":604800}\n1 < Report-To: {\"endpoints\":[{\"url\":\"https:\\\/\\\/a.nel.cloudflare.com\\\/report?s=RqRzzeKxvjAYDHpQaavru6unu9bbFhh3rQDBqQRPmHSni3SRCxmW%2F57KXc%2Ba8B%2B2UkSGxNGKI8bAr653U7SUrcvvEfe49kSA8cY%3D\"}],\"group\":\"cf-nel\",\"max_age\":604800}\n1 < Server: cloudflare\n1 < Transfer-Encoding: chunked\n1 < Vary: Accept-Encoding\n1 < cf-request-id: 06c53b6cfd00001a7a07a46000000001\n\n18:56:51.270 request:\n2 > GET http:\/\/reqres.in\/api\/users%3Fpage='2'\n2 > Accept-Encoding: gzip,deflate\n2 > Connection: Keep-Alive\n2 > Host: reqres.in\n2 > User-Agent: Apache-HttpClient\/4.5.12 (Java\/1.8.0_251)\n\n18:56:51.441 response time in milliseconds: 162.25\n2 < 200\n2 < Access-Control-Allow-Origin: *\n2 < Age: 317\n2 < CF-Cache-Status: HIT\n2 < CF-RAY: 5fb561c2ad2c1a6e-SIN\n2 < Cache-Control: max-age=14400\n2 < Connection: keep-alive\n2 < Content-Type: application\/json; charset=utf-8\n2 < Date: Wed, 02 Dec 2020 13:26:50 GMT\n2 < Etag: W\/\"2c1-N6Rqerxquq2kgQhL51EiSg4x0R8\"\n2 < Expect-CT: max-age=604800, report-uri=\"https:\/\/report-uri.cloudflare.com\/cdn-cgi\/beacon\/expect-ct\"\n2 < NEL: {\"report_to\":\"cf-nel\",\"max_age\":604800}\n2 < Report-To: {\"endpoints\":[{\"url\":\"https:\\\/\\\/a.nel.cloudflare.com\\\/report?s=LijbRoQx5FnP6MAhBY0BAfqJlMgCLYWLtdSYRnRSZhQaOBwizQ5CSTDV2v2J7Z12nSl02NI9GNtqzfljjQYNJYz41PMF7QjQHOw%3D\"}],\"group\":\"cf-nel\",\"max_age\":604800}\n2 < Server: cloudflare\n2 < Set-Cookie: __cfduid=dd403762e7fb0d6773935d548f57dca441606915610; expires=Fri, 01-Jan-21 13:26:50 GMT; path=\/; domain=.reqres.in; HttpOnly; SameSite=Lax; Secure\n2 < Transfer-Encoding: chunked\n2 < Vary: Accept-Encoding\n2 < Via: 1.1 vegur\n2 < X-Powered-By: Express\n2 < cf-request-id: 06c53b6daa00001a6e63a1d000000001\n{\"page\":1,\"per_page\":6,\"total\":12,\"total_pages\":2,\"data\":[{\"id\":1,\"name\":\"cerulean\",\"year\":2000,\"color\":\"#98B2D1\",\"pantone_value\":\"15-4020\"},{\"id\":2,\"name\":\"fuchsia rose\",\"year\":2001,\"color\":\"#C74375\",\"pantone_value\":\"17-2031\"},{\"id\":3,\"name\":\"true red\",\"year\":2002,\"color\":\"#BF1932\",\"pantone_value\":\"19-1664\"},{\"id\":4,\"name\":\"aqua sky\",\"year\":2003,\"color\":\"#7BC4C4\",\"pantone_value\":\"14-4811\"},{\"id\":5,\"name\":\"tigerlily\",\"year\":2004,\"color\":\"#E2583E\",\"pantone_value\":\"17-1456\"},{\"id\":6,\"name\":\"blue turquoise\",\"year\":2005,\"color\":\"#53B0AE\",\"pantone_value\":\"15-5217\"}],\"support\":{\"url\":\"https:\/\/reqres.in\/#support-heading\",\"text\":\"To keep ReqRes free, contributions towards server costs are appreciated!\"}}","line":9}},{"name":"status 200","result":{"duration":11200,"status":"passed"},"match":{"location":"karate","arguments":[]},"keyword":"Then","line":10},{"name":"response.page == 1","result":{"duration":928700,"status":"passed"},"match":{"location":"karate","arguments":[]},"keyword":"And","line":11},{"name":"match response.page == '##'","result":{"duration":550000,"status":"passed"},"match":{"location":"karate","arguments":[]},"keyword":"And","line":12}],"tags":[{"name":"@ddt","line":4}]},{"line":17,"name":"DDT Test Case","description":"","id":"ddt-test-case","type":"scenario","keyword":"Scenario Outline","steps":[{"name":"url \"http:\/\/reqres.in\"","result":{"duration":169000,"status":"passed"},"match":{"location":"karate","arguments":[]},"keyword":"Given","line":7,"doc_string":{"content_type":"","value":"18:56:51.441 skipping bootstrap configuration: could not find or read file: classpath:karate-config.js","line":7}},{"name":"path \"\/api\/users?page='3'\"","result":{"duration":3117300,"status":"passed"},"match":{"location":"karate","arguments":[]},"keyword":"And","line":8},{"name":"method GET","result":{"duration":269016000,"status":"passed"},"match":{"location":"karate","arguments":[]},"keyword":"When","line":9,"doc_string":{"content_type":"","value":"18:56:51.457 request:\n1 > GET http:\/\/reqres.in\/api\/users%3Fpage='3'\n1 > Accept-Encoding: gzip,deflate\n1 > Connection: Keep-Alive\n1 > Host: reqres.in\n1 > User-Agent: Apache-HttpClient\/4.5.12 (Java\/1.8.0_251)\n\n18:56:51.551 response time in milliseconds: 104.46\n1 < 301\n1 < CF-RAY: 5fb561c369e701b4-SIN\n1 < Cache-Control: max-age=3600\n1 < Connection: keep-alive\n1 < Date: Wed, 02 Dec 2020 13:26:50 GMT\n1 < Expires: Wed, 02 Dec 2020 14:26:50 GMT\n1 < Location: https:\/\/reqres.in\/api\/users%3Fpage='3'\n1 < NEL: {\"report_to\":\"cf-nel\",\"max_age\":604800}\n1 < Report-To: {\"endpoints\":[{\"url\":\"https:\\\/\\\/a.nel.cloudflare.com\\\/report?s=AMENd%2FhONQ%2F%2Fi2lom5Y1WsWENnCBW27vEarFYPNztPejCGNPOm697pFq9b%2BEiLwJwSTMhEMdwaKhI%2B1o3Tnd9mToQu4euBjgsnc%3D\"}],\"group\":\"cf-nel\",\"max_age\":604800}\n1 < Server: cloudflare\n1 < Transfer-Encoding: chunked\n1 < Vary: Accept-Encoding\n1 < cf-request-id: 06c53b6e25000001b4ac0bc000000001\n\n18:56:51.566 request:\n2 > GET http:\/\/reqres.in\/api\/users%3Fpage='3'\n2 > Accept-Encoding: gzip,deflate\n2 > Connection: Keep-Alive\n2 > Host: reqres.in\n2 > User-Agent: Apache-HttpClient\/4.5.12 (Java\/1.8.0_251)\n\n18:56:51.723 response time in milliseconds: 160.24\n2 < 200\n2 < Access-Control-Allow-Origin: *\n2 < Age: 316\n2 < CF-Cache-Status: HIT\n2 < CF-RAY: 5fb561c47842189f-SIN\n2 < Cache-Control: max-age=14400\n2 < Connection: keep-alive\n2 < Content-Type: application\/json; charset=utf-8\n2 < Date: Wed, 02 Dec 2020 13:26:50 GMT\n2 < Etag: W\/\"2c1-N6Rqerxquq2kgQhL51EiSg4x0R8\"\n2 < Expect-CT: max-age=604800, report-uri=\"https:\/\/report-uri.cloudflare.com\/cdn-cgi\/beacon\/expect-ct\"\n2 < NEL: {\"report_to\":\"cf-nel\",\"max_age\":604800}\n2 < Report-To: {\"endpoints\":[{\"url\":\"https:\\\/\\\/a.nel.cloudflare.com\\\/report?s=lLcxwNcul8pXtEqrAm1O%2BvsXbqStQ7KlX%2FZTt02AM6zk8mw3VgILrhY5GfkeRMEvw%2B1bOhJt7tUzMHs6Qf1ziFBxjWAT2KzstC4%3D\"}],\"group\":\"cf-nel\",\"max_age\":604800}\n2 < Server: cloudflare\n2 < Set-Cookie: __cfduid=deadf394844edd85645ddbb9b1e71c8a31606915610; expires=Fri, 01-Jan-21 13:26:50 GMT; path=\/; domain=.reqres.in; HttpOnly; SameSite=Lax; Secure\n2 < Transfer-Encoding: chunked\n2 < Vary: Accept-Encoding\n2 < Via: 1.1 vegur\n2 < X-Powered-By: Express\n2 < cf-request-id: 06c53b6eca0000189fc117b000000001\n{\"page\":1,\"per_page\":6,\"total\":12,\"total_pages\":2,\"data\":[{\"id\":1,\"name\":\"cerulean\",\"year\":2000,\"color\":\"#98B2D1\",\"pantone_value\":\"15-4020\"},{\"id\":2,\"name\":\"fuchsia rose\",\"year\":2001,\"color\":\"#C74375\",\"pantone_value\":\"17-2031\"},{\"id\":3,\"name\":\"true red\",\"year\":2002,\"color\":\"#BF1932\",\"pantone_value\":\"19-1664\"},{\"id\":4,\"name\":\"aqua sky\",\"year\":2003,\"color\":\"#7BC4C4\",\"pantone_value\":\"14-4811\"},{\"id\":5,\"name\":\"tigerlily\",\"year\":2004,\"color\":\"#E2583E\",\"pantone_value\":\"17-1456\"},{\"id\":6,\"name\":\"blue turquoise\",\"year\":2005,\"color\":\"#53B0AE\",\"pantone_value\":\"15-5217\"}],\"support\":{\"url\":\"https:\/\/reqres.in\/#support-heading\",\"text\":\"To keep ReqRes free, contributions towards server costs are appreciated!\"}}","line":9}},{"name":"status 200","result":{"duration":8000,"status":"passed"},"match":{"location":"karate","arguments":[]},"keyword":"Then","line":10},{"name":"response.page == 1","result":{"duration":599100,"status":"passed"},"match":{"location":"karate","arguments":[]},"keyword":"And","line":11},{"name":"match response.page == '##'","result":{"duration":237800,"status":"passed"},"match":{"location":"karate","arguments":[]},"keyword":"And","line":12}],"tags":[{"name":"@ddt","line":4}]},{"line":18,"name":"DDT Test Case","description":"","id":"ddt-test-case","type":"scenario","keyword":"Scenario Outline","steps":[{"name":"url \"http:\/\/reqres.in\"","result":{"duration":283600,"status":"passed"},"match":{"location":"karate","arguments":[]},"keyword":"Given","line":7,"doc_string":{"content_type":"","value":"18:56:51.723 skipping bootstrap configuration: could not find or read file: classpath:karate-config.js","line":7}},{"name":"path \"\/api\/users?page='4'\"","result":{"duration":2094500,"status":"passed"},"match":{"location":"karate","arguments":[]},"keyword":"And","line":8},{"name":"method GET","result":{"duration":296887600,"status":"passed"},"match":{"location":"karate","arguments":[]},"keyword":"When","line":9,"doc_string":{"content_type":"","value":"18:56:51.738 request:\n1 > GET http:\/\/reqres.in\/api\/users%3Fpage='4'\n1 > Accept-Encoding: gzip,deflate\n1 > Connection: Keep-Alive\n1 > Host: reqres.in\n1 > User-Agent: Apache-HttpClient\/4.5.12 (Java\/1.8.0_251)\n\n18:56:51.863 response time in milliseconds: 131.72\n1 < 301\n1 < CF-RAY: 5fb561c5280fe24b-SIN\n1 < Cache-Control: max-age=3600\n1 < Connection: keep-alive\n1 < Date: Wed, 02 Dec 2020 13:26:50 GMT\n1 < Expires: Wed, 02 Dec 2020 14:26:50 GMT\n1 < Location: https:\/\/reqres.in\/api\/users%3Fpage='4'\n1 < NEL: {\"report_to\":\"cf-nel\",\"max_age\":604800}\n1 < Report-To: {\"endpoints\":[{\"url\":\"https:\\\/\\\/a.nel.cloudflare.com\\\/report?s=q8zgK1gVhQM3zMUh1s5xmMuWh3Qgb1mZLTZpWCZQ1eFnvRSDdxMMXOOvkZqvl0gh5eXkH0cMUqzCxl1K2WMIDuminerRnEXqX8E%3D\"}],\"group\":\"cf-nel\",\"max_age\":604800}\n1 < Server: cloudflare\n1 < Transfer-Encoding: chunked\n1 < Vary: Accept-Encoding\n1 < cf-request-id: 06c53b6f3e0000e24b319ef000000001\n\n18:56:51.863 request:\n2 > GET http:\/\/reqres.in\/api\/users%3Fpage='4'\n2 > Accept-Encoding: gzip,deflate\n2 > Connection: Keep-Alive\n2 > Host: reqres.in\n2 > User-Agent: Apache-HttpClient\/4.5.12 (Java\/1.8.0_251)\n\n18:56:52.019 response time in milliseconds: 158.68\n2 < 200\n2 < Access-Control-Allow-Origin: *\n2 < Age: 315\n2 < CF-Cache-Status: HIT\n2 < CF-RAY: 5fb561c65a8cddfd-SIN\n2 < Cache-Control: max-age=14400\n2 < Connection: keep-alive\n2 < Content-Type: application\/json; charset=utf-8\n2 < Date: Wed, 02 Dec 2020 13:26:50 GMT\n2 < Etag: W\/\"2c1-N6Rqerxquq2kgQhL51EiSg4x0R8\"\n2 < Expect-CT: max-age=604800, report-uri=\"https:\/\/report-uri.cloudflare.com\/cdn-cgi\/beacon\/expect-ct\"\n2 < NEL: {\"report_to\":\"cf-nel\",\"max_age\":604800}\n2 < Report-To: {\"endpoints\":[{\"url\":\"https:\\\/\\\/a.nel.cloudflare.com\\\/report?s=heASTdOqpYn2LhHGcxCOjO3bKPvLDcQfJ5pQ3yimO%2Fo6YUKTFKZqa6Bt95G9%2B61XcuZCa%2FRyfCnq5ML9un%2F%2F2KgyqrSt%2FoOkhb8%3D\"}],\"group\":\"cf-nel\",\"max_age\":604800}\n2 < Server: cloudflare\n2 < Set-Cookie: __cfduid=dd7080c48b484cf7ea36d61b59c7fe1661606915610; expires=Fri, 01-Jan-21 13:26:50 GMT; path=\/; domain=.reqres.in; HttpOnly; SameSite=Lax; Secure\n2 < Transfer-Encoding: chunked\n2 < Vary: Accept-Encoding\n2 < Via: 1.1 vegur\n2 < X-Powered-By: Express\n2 < cf-request-id: 06c53b6ff70000ddfd39102000000001\n{\"page\":1,\"per_page\":6,\"total\":12,\"total_pages\":2,\"data\":[{\"id\":1,\"name\":\"cerulean\",\"year\":2000,\"color\":\"#98B2D1\",\"pantone_value\":\"15-4020\"},{\"id\":2,\"name\":\"fuchsia rose\",\"year\":2001,\"color\":\"#C74375\",\"pantone_value\":\"17-2031\"},{\"id\":3,\"name\":\"true red\",\"year\":2002,\"color\":\"#BF1932\",\"pantone_value\":\"19-1664\"},{\"id\":4,\"name\":\"aqua sky\",\"year\":2003,\"color\":\"#7BC4C4\",\"pantone_value\":\"14-4811\"},{\"id\":5,\"name\":\"tigerlily\",\"year\":2004,\"color\":\"#E2583E\",\"pantone_value\":\"17-1456\"},{\"id\":6,\"name\":\"blue turquoise\",\"year\":2005,\"color\":\"#53B0AE\",\"pantone_value\":\"15-5217\"}],\"support\":{\"url\":\"https:\/\/reqres.in\/#support-heading\",\"text\":\"To keep ReqRes free, contributions towards server costs are appreciated!\"}}","line":9}},{"name":"status 200","result":{"duration":22300,"status":"passed"},"match":{"location":"karate","arguments":[]},"keyword":"Then","line":10},{"name":"response.page == 1","result":{"duration":1277300,"status":"passed"},"match":{"location":"karate","arguments":[]},"keyword":"And","line":11},{"name":"match response.page == '##'","result":{"duration":301500,"status":"passed"},"match":{"location":"karate","arguments":[]},"keyword":"And","line":12}],"tags":[{"name":"@ddt","line":4}]},{"line":19,"name":"DDT Test Case","description":"","id":"ddt-test-case","type":"scenario","keyword":"Scenario Outline","steps":[{"name":"url \"http:\/\/reqres.in\"","result":{"duration":157400,"status":"passed"},"match":{"location":"karate","arguments":[]},"keyword":"Given","line":7,"doc_string":{"content_type":"","value":"18:56:52.035 skipping bootstrap configuration: could not find or read file: classpath:karate-config.js","line":7}},{"name":"path \"\/api\/users?page='5'\"","result":{"duration":1655900,"status":"passed"},"match":{"location":"karate","arguments":[]},"keyword":"And","line":8},{"name":"method GET","result":{"duration":265582600,"status":"passed"},"match":{"location":"karate","arguments":[]},"keyword":"When","line":9,"doc_string":{"content_type":"","value":"18:56:52.035 request:\n1 > GET http:\/\/reqres.in\/api\/users%3Fpage='5'\n1 > Accept-Encoding: gzip,deflate\n1 > Connection: Keep-Alive\n1 > Host: reqres.in\n1 > User-Agent: Apache-HttpClient\/4.5.12 (Java\/1.8.0_251)\n\n18:56:52.144 response time in milliseconds: 100.18\n1 < 301\n1 < CF-RAY: 5fb561c71c63dcea-SIN\n1 < Cache-Control: max-age=3600\n1 < Connection: keep-alive\n1 < Date: Wed, 02 Dec 2020 13:26:50 GMT\n1 < Expires: Wed, 02 Dec 2020 14:26:50 GMT\n1 < Location: https:\/\/reqres.in\/api\/users%3Fpage='5'\n1 < NEL: {\"report_to\":\"cf-nel\",\"max_age\":604800}\n1 < Report-To: {\"endpoints\":[{\"url\":\"https:\\\/\\\/a.nel.cloudflare.com\\\/report?s=nODR6tFIEIKTFH22ru7vMafDelDnTGc6CaECewlC15SlYPtPGGRNfQpA73DiGtMGyzlIxC%2BmP8Fx8%2FkUqKQ1KSCNqH0HZHS9c04%3D\"}],\"group\":\"cf-nel\",\"max_age\":604800}\n1 < Server: cloudflare\n1 < Transfer-Encoding: chunked\n1 < Vary: Accept-Encoding\n1 < cf-request-id: 06c53b706d0000dcea4d0e9000000001\n\n18:56:52.144 request:\n2 > GET http:\/\/reqres.in\/api\/users%3Fpage='5'\n2 > Accept-Encoding: gzip,deflate\n2 > Connection: Keep-Alive\n2 > Host: reqres.in\n2 > User-Agent: Apache-HttpClient\/4.5.12 (Java\/1.8.0_251)\n\n18:56:52.300 response time in milliseconds: 161.24\n2 < 200\n2 < Access-Control-Allow-Origin: *\n2 < Age: 315\n2 < CF-Cache-Status: HIT\n2 < CF-RAY: 5fb561c81c64018f-SIN\n2 < Cache-Control: max-age=14400\n2 < Connection: keep-alive\n2 < Content-Type: application\/json; charset=utf-8\n2 < Date: Wed, 02 Dec 2020 13:26:50 GMT\n2 < Etag: W\/\"2c1-N6Rqerxquq2kgQhL51EiSg4x0R8\"\n2 < Expect-CT: max-age=604800, report-uri=\"https:\/\/report-uri.cloudflare.com\/cdn-cgi\/beacon\/expect-ct\"\n2 < NEL: {\"report_to\":\"cf-nel\",\"max_age\":604800}\n2 < Report-To: {\"endpoints\":[{\"url\":\"https:\\\/\\\/a.nel.cloudflare.com\\\/report?s=%2B2IkV4ey2RDB6GWS8YS%2FGKVxFY5Gd5amrmwY3rEk74bzJvf4aeO%2FnoLcdYwZ9C5dKHNbfAMngEhxkrV%2FAykCMAgE94mw2s6ZBAI%3D\"}],\"group\":\"cf-nel\",\"max_age\":604800}\n2 < Server: cloudflare\n2 < Set-Cookie: __cfduid=dc8d63ae41d66e6428d933433b7eabc741606915610; expires=Fri, 01-Jan-21 13:26:50 GMT; path=\/; domain=.reqres.in; HttpOnly; SameSite=Lax; Secure\n2 < Transfer-Encoding: chunked\n2 < Vary: Accept-Encoding\n2 < Via: 1.1 vegur\n2 < X-Powered-By: Express\n2 < cf-request-id: 06c53b710e0000018ff0bf0000000001\n{\"page\":1,\"per_page\":6,\"total\":12,\"total_pages\":2,\"data\":[{\"id\":1,\"name\":\"cerulean\",\"year\":2000,\"color\":\"#98B2D1\",\"pantone_value\":\"15-4020\"},{\"id\":2,\"name\":\"fuchsia rose\",\"year\":2001,\"color\":\"#C74375\",\"pantone_value\":\"17-2031\"},{\"id\":3,\"name\":\"true red\",\"year\":2002,\"color\":\"#BF1932\",\"pantone_value\":\"19-1664\"},{\"id\":4,\"name\":\"aqua sky\",\"year\":2003,\"color\":\"#7BC4C4\",\"pantone_value\":\"14-4811\"},{\"id\":5,\"name\":\"tigerlily\",\"year\":2004,\"color\":\"#E2583E\",\"pantone_value\":\"17-1456\"},{\"id\":6,\"name\":\"blue turquoise\",\"year\":2005,\"color\":\"#53B0AE\",\"pantone_value\":\"15-5217\"}],\"support\":{\"url\":\"https:\/\/reqres.in\/#support-heading\",\"text\":\"To keep ReqRes free, contributions towards server costs are appreciated!\"}}","line":9}},{"name":"status 200","result":{"duration":12700,"status":"passed"},"match":{"location":"karate","arguments":[]},"keyword":"Then","line":10},{"name":"response.page == 1","result":{"duration":1214600,"status":"passed"},"match":{"location":"karate","arguments":[]},"keyword":"And","line":11},{"name":"match response.page == '##'","result":{"duration":341900,"status":"passed"},"match":{"location":"karate","arguments":[]},"keyword":"And","line":12}],"tags":[{"name":"@ddt","line":4}]}],"name":"src\/test\/java\/FeatureFiles\/Karate11.feature","description":"Karate Test Suite 10\nData driven testing","id":"karate-test-suite-10","keyword":"Feature","uri":"src\/test\/java\/FeatureFiles\/Karate11.feature"}]